%YAML 1.1
%TAG !u! tag:unity3d.com,2011:
--- !u!1001 &8981504093331177754
PrefabInstance:
  m_ObjectHideFlags: 0
  serializedVersion: 2
  m_Modification:
    m_TransformParent: {fileID: 0}
    m_Modifications:
    - target: {fileID: 1667260960004059206, guid: 412da8f463f8d0a49a26f8523192dcae,
        type: 3}
      propertyPath: m_Name
      value: Cube_ (0) Move
      objectReference: {fileID: 0}
    - target: {fileID: 2087956307900439413, guid: 412da8f463f8d0a49a26f8523192dcae,
        type: 3}
      propertyPath: m_LocalPosition.x
      value: 0
      objectReference: {fileID: 0}
    - target: {fileID: 2087956307900439413, guid: 412da8f463f8d0a49a26f8523192dcae,
        type: 3}
      propertyPath: m_LocalPosition.y
      value: 0
      objectReference: {fileID: 0}
    - target: {fileID: 2087956307900439413, guid: 412da8f463f8d0a49a26f8523192dcae,
        type: 3}
      propertyPath: m_LocalPosition.z
      value: 0
      objectReference: {fileID: 0}
    - target: {fileID: 2087956307900439413, guid: 412da8f463f8d0a49a26f8523192dcae,
        type: 3}
      propertyPath: m_LocalRotation.x
      value: 0
      objectReference: {fileID: 0}
    - target: {fileID: 2087956307900439413, guid: 412da8f463f8d0a49a26f8523192dcae,
        type: 3}
      propertyPath: m_LocalRotation.y
      value: 0
      objectReference: {fileID: 0}
    - target: {fileID: 2087956307900439413, guid: 412da8f463f8d0a49a26f8523192dcae,
        type: 3}
      propertyPath: m_LocalRotation.z
      value: 0
      objectReference: {fileID: 0}
    - target: {fileID: 2087956307900439413, guid: 412da8f463f8d0a49a26f8523192dcae,
        type: 3}
      propertyPath: m_LocalRotation.w
      value: 1
      objectReference: {fileID: 0}
    - target: {fileID: 2087956307900439413, guid: 412da8f463f8d0a49a26f8523192dcae,
        type: 3}
      propertyPath: m_RootOrder
      value: 0
      objectReference: {fileID: 0}
    - target: {fileID: 2087956307900439413, guid: 412da8f463f8d0a49a26f8523192dcae,
        type: 3}
      propertyPath: m_LocalEulerAnglesHint.x
      value: 0
      objectReference: {fileID: 0}
    - target: {fileID: 2087956307900439413, guid: 412da8f463f8d0a49a26f8523192dcae,
        type: 3}
      propertyPath: m_LocalEulerAnglesHint.y
      value: 0
      objectReference: {fileID: 0}
    - target: {fileID: 2087956307900439413, guid: 412da8f463f8d0a49a26f8523192dcae,
        type: 3}
      propertyPath: m_LocalEulerAnglesHint.z
      value: 0
      objectReference: {fileID: 0}
    - target: {fileID: 7282499100520757052, guid: 412da8f463f8d0a49a26f8523192dcae,
        type: 3}
      propertyPath: m_Materials.Array.data[0]
      value: 
      objectReference: {fileID: 2100000, guid: 4eb1d4e8f34f35045b90a476940284b0, type: 2}
    - target: {fileID: 6399420542662728843, guid: 412da8f463f8d0a49a26f8523192dcae,
        type: 3}
      propertyPath: m_IsTrigger
      value: 1
      objectReference: {fileID: 0}
    m_RemovedComponents: []
  m_SourcePrefab: {fileID: 100100000, guid: 412da8f463f8d0a49a26f8523192dcae, type: 3}
